Chapter 8 資料基本處理 | R 資料科學與統計
…
MISC
註記

Table 1. 糖尿病與人工關節術後感染臨床試驗: 變數說明

# .csv
library(tidyverse)
## Warning: package 'tibble' was built under R version 4.0.3
## Warning: package 'readr' was built under R version 4.0.3
library(readr)
dd <- readr::read_csv("./Data/DMTKAInfMo.csv")
print(dd, n = 5, width = Inf)
## # A tibble: 78 x 16
##      No   age   sex    DM  DMyr preAC prePC postAC postPC medication  SIDE PREKS POSTKS
##   <dbl> <dbl> <dbl> <dbl> <dbl> <dbl> <dbl>  <dbl>  <dbl>      <dbl> <dbl> <dbl>  <dbl>
## 1     1    67     0     0    10   120   160    140    180          0     0    56     92
## 2     2    67     0     0    11   100   150    150    220          0     1    62     62
## 3     3    72     1     0     4   150   200    120    150          2     0    60     94
## 4     4    82     1     0     8   150   200    160    250          0     1    47     90
## 5     5    73     1     0     3    85   110    140    200          0     0    44     88
##     ABS INFECT INFMO
##   <dbl>  <dbl> <dbl>
## 1     1      0     0
## 2     0      1     2
## 3     1      0     0
## 4     1      0     0
## 5     0      0     0
## # ... with 73 more rows
# .xls
library(readxl)
dd <- readxl::read_excel("C:/RData/DMTKAInfMo.xls")
print(dd, n = 5, width = Inf)
## # A tibble: 78 x 16
##      No   age   sex    DM  DMyr preAC prePC postAC postPC medication  SIDE PREKS POSTKS
##   <dbl> <dbl> <dbl> <dbl> <dbl> <dbl> <dbl>  <dbl>  <dbl>      <dbl> <dbl> <dbl>  <dbl>
## 1     1    67     0     0    10   120   160    140    180          0     0    56     92
## 2     2    67     0     0    11   100   150    150    220          0     1    62     62
## 3     3    72     1     0     4   150   200    120    150          2     0    60     94
## 4     4    82     1     0     8   150   200    160    250          0     1    47     90
## 5     5    73     1     0     3    85   110    140    200          0     0    44     88
##     ABS INFECT I0FECTMO
##   <dbl>  <dbl>    <dbl>
## 1     1      0        0
## 2     0      1        2
## 3     1      0        0
## 4     1      0        0
## 5     0      0        0
## # ... with 73 more rows
…
資料輸入到 {R} 後,
必須先檢視資料內容, 比對原始資料檔案是否正確讀入資料.
包含觀測值數目, 變數數目,
那些變數為辨識指標,
變數屬性, 那些變數為連續變數或類別變數,
類別變數屬性, 名目變數或是順序變數,
整理類別變數的類別水準名稱.
每個變數的缺失數目與頻率,
每個個體的缺失數目與頻率.
以資料在檔案第 5 章的 survVATrial.csv 為例.

dd = dd %>% as_tibble()
print(dd, n = 5, width = Inf)
## # A tibble: 137 x 8
##   treat cellcode  time censor diagtime   kps   age prior
##   <int>    <int> <int>  <int>    <int> <int> <int> <int>
## 1     0        1    72      1       60     7    69     0
## 2     0        1   411      1       70     5    64    10
## 3     0        1   228      1       60     3    38     0
## 4     0        1   126      1       60     9    63    10
## 5     0        1   118      1       70    11    65    10
## # ... with 132 more rows

可以看到資料有 137 位個體, 8 個變數.
其中time, diagtime, kps, age 為連續變數.
treat, cellcode, censor, prior 等為類別變數,
但類別變數以數字輸入, 需先設定成為類別變數.
以資料在檔案第 5 章的 survVATrial.csv 為例.

dd$treat <- factor(dd$treat, labels = c("placebo", "test"))
dd$cellcode <- factor(dd$cellcode, 
                      labels = c("squamous", "small", "adeno", "large"))
dd$censor <- factor(dd$censor, labels = c("survival", "dead"))
dd$prior <- factor(dd$prior, labels = c("no", "yes"))
print(dd, n = 5, width = Inf)
## # A tibble: 137 x 8
##   treat   cellcode  time censor diagtime   kps   age prior
##   <fct>   <fct>    <int> <fct>     <int> <int> <int> <fct>
## 1 placebo squamous    72 dead         60     7    69 no   
## 2 placebo squamous   411 dead         70     5    64 yes  
## 3 placebo squamous   228 dead         60     3    38 no   
## 4 placebo squamous   126 dead         60     9    63 yes  
## 5 placebo squamous   118 dead         70    11    65 yes  
## # ... with 132 more rows
…
選擇個體 treat 為試驗藥組, age 大於 50, kps 小於或等於 7

dd.b <- dd %>% 
  filter(treat == 'test', age > 50, kps <= 7)
dd.b
## # A tibble: 35 x 8
##    treat cellcode  time censor diagtime   kps   age prior
##    <fct> <fct>    <int> <fct>     <int> <int> <int> <fct>
##  1 test  squamous   112 dead         80     6    60 no   
##  2 test  squamous   242 dead         50     1    70 no   
##  3 test  squamous   111 dead         70     3    62 no   
##  4 test  squamous   587 dead         60     3    58 no   
##  5 test  squamous   389 dead         90     2    62 no   
##  6 test  squamous    33 dead         30     6    64 no   
##  7 test  squamous   467 dead         90     2    64 no   
##  8 test  squamous   283 dead         90     2    51 no   
##  9 test  small       25 dead         30     2    69 no   
## 10 test  small       21 dead         20     4    71 no   
## # ... with 25 more rows
…
資料常常需要依據變數值排序,
arrange() 函式內設依照變數在函式出現順序以及變數值由小到大排序.
若要變數值從由大到小排序, 可使用 desc() 函式.
例如, 以資料在檔案第 5 章的 survVATrial.csv 為例,
依照 age 由小到大排序,
time 由大到小排序.
無論如何排序, 缺失值總是排在最後,
這須與 {R} base 的 order(), sort() 或 rank() 進行比較.

## arrange()
dd.s <- dd %>% 
  arrange(age, desc(time))
dd.s
## # A tibble: 137 x 8
##    treat   cellcode  time censor   diagtime   kps   age prior
##    <fct>   <fct>    <int> <fct>       <int> <int> <int> <fct>
##  1 placebo adeno       95 dead           80     4    34 no   
##  2 placebo small        4 dead           40     2    35 no   
##  3 test    squamous     1 dead           50     7    35 no   
##  4 test    small      103 survival       70    22    36 yes  
##  5 placebo large      100 dead           60    13    37 yes  
##  6 test    large       49 dead           30     3    37 no   
##  7 placebo squamous   228 dead           60     3    38 no   
##  8 placebo adeno      117 dead           80     2    38 no   
##  9 placebo large      103 dead           80     5    38 no   
## 10 test    adeno       31 dead           80     3    39 no   
## # ... with 127 more rows

8.6.3 選擇變數或欄位子集函式 select()

面對大數據時, 可能有成千上萬的變數,
但通常部不會使用到所有的變數,
選擇所需要的變數另組成分析子集,
可減少 RAM 的負擔並加速分析執行速度.
以資料在檔案第 5 章的 survVATrial.csv 為例,
選擇 treat, cellcode, censor 等變數.

dd.c <- dd %>% 
  select(treat, cellcode, censor)
dd.c
## # A tibble: 137 x 3
##    treat   cellcode censor  
##    <fct>   <fct>    <fct>   
##  1 placebo squamous dead    
##  2 placebo squamous dead    
##  3 placebo squamous dead    
##  4 placebo squamous dead    
##  5 placebo squamous dead    
##  6 placebo squamous dead    
##  7 placebo squamous dead    
##  8 placebo squamous dead    
##  9 placebo squamous dead    
## 10 placebo squamous survival
## # ... with 127 more rows
…
## mutate()
dd.a <- dd %>% 
  mutate(
    log_age = log(age),
    diag_age = diagtime * age / 100
    )
dd.a %>% 
  select(age, diagtime, log_age, diag_age) %>% 
  print(n = 5, width = Inf)
## # A tibble: 137 x 4
##     age diagtime log_age diag_age
##   <int>    <int>   <dbl>    <dbl>
## 1    69       60    4.23     41.4
## 2    64       70    4.16     44.8
## 3    38       60    3.64     22.8
## 4    63       60    4.14     37.8
## 5    65       70    4.17     45.5
## # ... with 132 more rows
…
8.6.6 變數重新命名 rename()

dplyr 套件中的函式 rename() 可將變數重新命名.

rename(new_name = old_name)

以資料在檔案第 5 章的 survVATrial.csv 為例,
將變數 treat 重新命名為 drug.

## original
print(dd, n = 5, width = Inf)
## # A tibble: 137 x 8
##   treat   cellcode  time censor diagtime   kps   age prior
##   <fct>   <fct>    <int> <fct>     <int> <int> <int> <fct>
## 1 placebo squamous    72 dead         60     7    69 no   
## 2 placebo squamous   411 dead         70     5    64 yes  
## 3 placebo squamous   228 dead         60     3    38 no   
## 4 placebo squamous   126 dead         60     9    63 yes  
## 5 placebo squamous   118 dead         70    11    65 yes  
## # ... with 132 more rows
## change
dd.new <- dd %>% rename(drug = treat)
print(dd.new, n = 5, width = Inf)
## # A tibble: 137 x 8
##   drug    cellcode  time censor diagtime   kps   age prior
##   <fct>   <fct>    <int> <fct>     <int> <int> <int> <fct>
## 1 placebo squamous    72 dead         60     7    69 no   
## 2 placebo squamous   411 dead         70     5    64 yes  
## 3 placebo squamous   228 dead         60     3    38 no   
## 4 placebo squamous   126 dead         60     9    63 yes  
## 5 placebo squamous   118 dead         70    11    65 yes  
## # ... with 132 more rows
…
資料常常重覆輸入的個體, 或是個體有重覆測量,
distinct() 函式可以查詢多少明顯不同的個體,
使用引數 .keep_all = TRUE 可以保留所有變數.
函式 n_distinct() 計算明顯不同的個體數目,
使用引數 na.rm = FALSE 決定是否納入缺失值.

## distinct()
set.seed(1)
df <- tibble(
  x = sample(5, 100, rep = TRUE),
  y = sample(5, 100, rep = TRUE)
)
print(df, n = 20)
## # A tibble: 100 x 2
##        x     y
##    <int> <int>
##  1     1     1
##  2     4     3
##  3     1     3
##  4     2     3
##  5     5     3
##  6     3     4
##  7     2     1
##  8     3     1
##  9     3     4
## 10     1     2
## 11     5     1
## 12     5     2
## 13     2     3
## 14     2     4
## 15     1     1
## 16     5     3
## 17     5     5
## 18     1     3
## 19     1     4
## 20     5     2
## # ... with 80 more rows
…
##       x     y
##   <int> <int>
## 1     1     1
## 2     4     3
## 3     2     3
## 4     5     3
## 5     3     4
##
set.seed(1)
df <- tibble(
  x = sample(10, 100, rep = TRUE),
  y = sample(10, 100, rep = TRUE)
)
df
## # A tibble: 100 x 2
##        x     y
##    <int> <int>
##  1     9     3
##  2     4    10
##  3     7     3
##  4     1     1
##  5     2     6
##  6     7     6
##  7     2     4
##  8     3     9
##  9     1     5
## 10     5     1
## # ... with 90 more rows
…
set.seed(1)
dd %>% slice(1)
## # A tibble: 1 x 8
##   treat   cellcode  time censor diagtime   kps   age prior
##   <fct>   <fct>    <int> <fct>     <int> <int> <int> <fct>
## 1 placebo squamous    72 dead         60     7    69 no
dd %>% slice(1:3)
## # A tibble: 3 x 8
##   treat   cellcode  time censor diagtime   kps   age prior
##   <fct>   <fct>    <int> <fct>     <int> <int> <int> <fct>
## 1 placebo squamous    72 dead         60     7    69 no   
## 2 placebo squamous   411 dead         70     5    64 yes  
## 3 placebo squamous   228 dead         60     3    38 no
dd %>% slice(101:n())
## # A tibble: 37 x 8
##    treat cellcode  time censor   diagtime   kps   age prior
##    <fct> <fct>    <int> <fct>       <int> <int> <int> <fct>
##  1 test  small       99 dead           85     4    62 no   
##  2 test  small       61 dead           70     2    71 no   
##  3 test  small       25 dead           70     2    70 no   
##  4 test  small       95 dead           70     1    61 no   
##  5 test  small       80 dead           50    17    71 no   
##  6 test  small       51 dead           30    87    59 yes  
##  7 test  small       29 dead           40     8    67 no   
##  8 test  adeno       24 dead           40     2    60 no   
##  9 test  adeno       18 dead           40     5    69 yes  
## 10 test  adeno       83 survival       99     3    57 no   
## # ... with 27 more rows
dd %>% slice(-c(1:100))
## # A tibble: 37 x 8
##    treat cellcode  time censor   diagtime   kps   age prior
##    <fct> <fct>    <int> <fct>       <int> <int> <int> <fct>
##  1 test  small       99 dead           85     4    62 no   
##  2 test  small       61 dead           70     2    71 no   
##  3 test  small       25 dead           70     2    70 no   
##  4 test  small       95 dead           70     1    61 no   
##  5 test  small       80 dead           50    17    71 no   
##  6 test  small       51 dead           30    87    59 yes  
##  7 test  small       29 dead           40     8    67 no   
##  8 test  adeno       24 dead           40     2    60 no   
##  9 test  adeno       18 dead           40     5    69 yes  
## 10 test  adeno       83 survival       99     3    57 no   
## # ... with 27 more rows
…
