Chapter 14 資料與變數 | R 資料科學與統計
…
Table 1. 抽菸, 膽固醇與血壓調查研究: 變數說明

library(tidyverse)
library(readr)
dd <- readr::read_csv("./Data/BPsurvey.csv",
                      na = c(".", "", "NA"),
                      trim_ws = TRUE)
# glimpse(dd)
names(dd) <- tolower(names(dd))
dd$sex = factor(dd$sex, labels = c("male", "female"))
dd$race = factor(dd$race, labels = c("white", "black", "other"))
dd$smoke = factor(dd$smoke, labels = c("never", "past", "current"))
print(dd, n = 5, width = Inf)
## # A tibble: 15,643 x 10
##      id sex    race  smoke   age    wt    ht   sbp   dbp  chol
##   <dbl> <fct>  <fct> <fct> <dbl> <dbl> <dbl> <dbl> <dbl> <dbl>
## 1     3 female white never    21    81   179   120    67   268
## 2     4 male   white never    32    61   162   126    86   160
## 3     9 male   white past     48    68   157   131    73   236
## 4    10 female white never    35    92   177   130    82   225
## 5    11 female white past     48    70   168   120    70   260
## # ... with 15,638 more rows
…
Table 2. 新生兒出生體重過輕病例對照研究: 變數說明

dd <- readr::read_csv("./Data/LowBwt.csv",
                      na = c(".", "", "NA"),
                      trim_ws = TRUE)
# glimpse(dd)
names(dd) <- tolower(names(dd))
dd$low = factor(dd$low, labels = c("no", "yes"))
dd$race = factor(dd$race, labels = c("white", "black", "other"))
dd$smoke = factor(dd$smoke, labels = c("no", "yes"))
dd$ui = factor(dd$ui, labels = c("no", "yes"))
print(dd, n = 5, width = Inf)
## # A tibble: 189 x 11
##      id low     age   lwt race  smoke   ptl    ht ui      ftv   bwt
##   <dbl> <fct> <dbl> <dbl> <fct> <fct> <dbl> <dbl> <fct> <dbl> <dbl>
## 1    85 no       19    83 black no        0     0 yes       0  2523
## 2    86 no       33    70 other no        0     0 no        3  2551
## 3    87 no       20    48 white yes       0     0 no        1  2557
## 4    88 no       21    49 white yes       0     0 yes       2  2594
## 5    89 no       18    49 white yes       0     0 yes       0  2600
## # ... with 184 more rows
…
time_outcome
從進入研究到最後追蹤時間 (年)

Table 3. 佛明罕研究: 變數說明

dd <- readr::read_csv("./Data/FraminghamStudyLocalPY.csv",
                      na = c(".", "", "NA"),
                      trim_ws = TRUE)
# glimpse(dd)
names(dd) <- tolower(names(dd))
dd$female = factor(dd$female, labels = c("male", "female"))
dd$cursmoke = factor(dd$cursmoke, labels = c("no", "yes"))
dd$outcome = factor(dd$outcome, labels = c("alive", "dead", "other"))
print(dd, n = 5, width = Inf)
## # A tibble: 2,316 x 12
##   female totchol   age   bmi  bpvar heartrte glucose cursmoke outcome time_outcome
##   <fct>    <dbl> <dbl> <dbl>  <dbl>    <dbl>   <dbl> <fct>    <fct>          <dbl>
## 1 male       195    39  27.0 -17          80      77 no       alive          24   
## 2 female     250    46  28.7   1.5        95      76 no       alive          24   
## 3 male       245    48  25.3   3.75       75      70 yes      alive          24   
## 4 female     285    46  23.1   9          85      85 yes      dead           11.7 
## 5 female     205    63  33.1   0          60      85 no       dead            6.06
##   cigpday    id
##     <dbl> <dbl>
## 1       0     1
## 2       0     2
## 3      20     3
## 4      23     4
## 5       0     5
## # ... with 2,311 more rows
…
Table 4. 糖尿病防治臨床試驗: 變數說明

library(tidyverse)
dd <- readr::read_csv("C:/RData/DMDCCThba1c6.csv",
                      na = c(".", "", "NA"),
                      trim_ws = TRUE)
# glimpse(dd)
dd$treat = factor(dd$treat, labels = c("placebo", "test"))
dd$neur0 = factor(dd$neur0, labels = c("no", "yes"))
dd$microalb = factor(dd$microalb, labels = c("no", "yes"))
dd$adult = factor(dd$adult, labels = c("no", "yes"))
dd$female = factor(dd$female, labels = c("male", "female"))
print(dd, n = 5, width = Inf)
## # A tibble: 1,441 x 21
##      id treat   etdrs0 neur0  aer0 microalb quart duration female   age adult cpeptide
##   <dbl> <fct>    <dbl> <fct> <dbl> <fct>    <dbl>    <dbl> <fct>  <dbl> <fct>    <dbl>
## 1     1 test         3 no    15.8  no          36      178 female    17 no        0.09
## 2     2 placebo      8 no    11.5  yes         20      142 male      29 yes       0.17
## 3     3 placebo      7 yes   36    yes         12      175 male      35 yes       0.01
## 4     4 test         1 no     4.32 no          36       31 female    14 no        0.18
## 5     5 test         2 no     7.2  no          36       72 male      32 yes       0.03
##     bmi hba1cbase hba1c0 hba1c1 hba1c2 hba1c3 hba1c4 hba1c5 hba1c6
##   <dbl>     <dbl>  <dbl>  <dbl>  <dbl>  <dbl>  <dbl>  <dbl>  <dbl>
## 1  21.2      9.63   9.63   8.91   8.72   8.87   8.81   8.76   8.62
## 2  22.9      8.76   8.76   9.30   9.36   9.39   9.30   9.15   9.10
## 3  26.6      7.93   7.93   8.28   7.92   7.96   7.97   7.94   7.95
## 4  16.2      7.62   7.62   8.65   8.75   8.88   8.85   8.82   8.56
## 5  26.3      8.53   8.53   7.04   7.40   7.49   7.72   7.83   7.81
## # ... with 1,436 more rows
…
