Chapter 11 日期時間處理 | R 資料科學與統計
…
11.2 從date-time 資料個別成分, 創件日期時間物件.

許多資料在儲存時, 是將年, 月, 日, 時, 分, 秒 等分開以變數 (欄位) 儲存.
在資料分析時才創件成為日期時間物件,
例如 {R} 的 nycflights13 套件的 flights 資料,
此資料是有關紐約機場班機起降時間記錄.
可使用函式 make_datetime() 創件日期時間物件.

## nycflights13 package
library(nycflights13)
## store as separate variables
flights %>% 
  select(year, month, day, hour, minute)
## # A tibble: 336,776 x 5
##     year month   day  hour minute
##    <int> <int> <int> <dbl>  <dbl>
##  1  2013     1     1     5     15
##  2  2013     1     1     5     29
##  3  2013     1     1     5     40
##  4  2013     1     1     5     45
##  5  2013     1     1     6      0
##  6  2013     1     1     5     58
##  7  2013     1     1     6      0
##  8  2013     1     1     6      0
##  9  2013     1     1     6      0
## 10  2013     1     1     6      0
## # ... with 336,766 more rows
## create date-time
flights %>% 
  select(year, month, day, hour, minute) %>% 
  mutate(departure = make_datetime(year, month, day, hour, minute))
## # A tibble: 336,776 x 6
##     year month   day  hour minute departure                 
##    <int> <int> <int> <dbl>  <dbl> <dttm>                    
##  1  2013     1     1     5     15 2013-01-01 05:15:00.000000
##  2  2013     1     1     5     29 2013-01-01 05:29:00.000000
##  3  2013     1     1     5     40 2013-01-01 05:40:00.000000
##  4  2013     1     1     5     45 2013-01-01 05:45:00.000000
##  5  2013     1     1     6      0 2013-01-01 06:00:00.000000
##  6  2013     1     1     5     58 2013-01-01 05:58:00.000000
##  7  2013     1     1     6      0 2013-01-01 06:00:00.000000
##  8  2013     1     1     6      0 2013-01-01 06:00:00.000000
##  9  2013     1     1     6      0 2013-01-01 06:00:00.000000
## 10  2013     1     1     6      0 2013-01-01 06:00:00.000000
## # ... with 336,766 more rows
…
