Chapter 13 統計與醫學 | R 資料科學與統計
…
Table 1: 糖尿病防治臨床試驗變數說明

library(tidyverse)
dd <- readr::read_csv("C:/RData/DMDCCThba1c6.csv",
                      na = c(".", "", "NA"),
                      trim_ws = TRUE)
# glimpse(dd)
dd$treat = factor(dd$treat, labels = c("placebo", "test"))
dd$neur0 = factor(dd$neur0, labels = c("no", "yes"))
dd$microalb = factor(dd$microalb, labels = c("no", "yes"))
dd$adult = factor(dd$adult, labels = c("no", "yes"))
dd$female = factor(dd$female, labels = c("male", "female"))
print(dd, n = 5, width = Inf)
## # A tibble: 1,441 x 21
##      id treat   etdrs0 neur0  aer0 microalb quart duration female   age adult cpeptide   bmi
##   <dbl> <fct>    <dbl> <fct> <dbl> <fct>    <dbl>    <dbl> <fct>  <dbl> <fct>    <dbl> <dbl>
## 1     1 test         3 no    15.8  no          36      178 female    17 no        0.09  21.2
## 2     2 placebo      8 no    11.5  yes         20      142 male      29 yes       0.17  22.9
## 3     3 placebo      7 yes   36    yes         12      175 male      35 yes       0.01  26.6
## 4     4 test         1 no     4.32 no          36       31 female    14 no        0.18  16.2
## 5     5 test         2 no     7.2  no          36       72 male      32 yes       0.03  26.3
##   hba1cbase hba1c0 hba1c1 hba1c2 hba1c3 hba1c4 hba1c5 hba1c6
##       <dbl>  <dbl>  <dbl>  <dbl>  <dbl>  <dbl>  <dbl>  <dbl>
## 1      9.63   9.63   8.91   8.72   8.87   8.81   8.76   8.62
## 2      8.76   8.76   9.30   9.36   9.39   9.30   9.15   9.10
## 3      7.93   7.93   8.28   7.92   7.96   7.97   7.94   7.95
## 4      7.62   7.62   8.65   8.75   8.88   8.85   8.82   8.56
## 5      8.53   8.53   7.04   7.40   7.49   7.72   7.83   7.81
## # ... with 1,436 more rows
…
